[
  {
    "name": "Colors",
    "settings": [
      {
        "type": "textarea",
        "id": "variant_colors",
        "default": "{'White':'FFFFFF', 'Winter White':'F4F3F3', 'Silex':'8E8F8D', 'Cadet':'353E7B', 'Ebony':'605F5D', 'Lipstick':'BB2238', 'Navy':'383E4F', 'Black':'000000', 'Mustard':'F6B832', 'Ruby Red':'F6B832', 'Beige':'D4B899', 'Avocado':'6A6D34', 'Azule Blue':'0081C2', 'Burnt Orange':'DB663D', 'Zinfandel':'63222D', 'Olive':'555C2E', 'Mustang':'6A4C41', 'Dark Brown':'3F312F', 'Royal':'3A56A1', 'Heather Black':'101817', 'Heather Grey':'959595', 'Heather Navy':'304C6C', 'Heater Denim':'47688C', 'Heather Olive':'5C6137', 'Heather Medium Grey':'201F20', 'Heather Brown':'453835', 'Heather Ruby':'A12930', 'Sea Spray':'707B71', 'Fushia':'CD3580', 'Natural':'F2EAD9', 'Dark Olive':'504F42', 'Lime':'BDD441', 'Athletic Red':'D0232D', 'Neon Orange':'F27634', 'Zephyr':'C19DA4', 'Sand':'D4B899', 'Hazard Orange':'F58A31', 'New Teal':'0E8E85', 'Berry':'7D1A4B', 'Lotus Pink':'E2C1BF', 'Violet':'4E478C', 'Cyan':'17AEC2', 'Neon Green':'47B44F', 'Neon Yellow':'F8EB47', 'Hot Coral':'EE5C5A', 'Saffron':'F9A631', 'Neon Pink':'DC3B7B', 'Sea Port':'095A72', 'Merlot':'952F4A', 'Grape':'4F3460', 'Lemon':'F6E04E', 'Burlap':'AC9A8B', 'Heather Atmosphere':'BCAEA0', 'Sea Grass':'075F5F', 'Jade':'89CFC8', 'Bic Green':'108556', 'Cypress':'3F4C39', 'True Blue':'124F83', 'Iris':'644581', 'Jester Red':'963446', 'Dark Shadow':'454B4C', 'Emerald':'009C59', 'Rose Bloom':'E8B1C9', 'Otter':'9A6531', 'Kangaroo':'6C5A4D', 'Atlantic':'1794BF', 'Burnt Tomato':'C24832', 'Hibiscus':'EF646F', }",
        "label": "Variant Colors"
      }
    ]
  },
  {
    "name": "Header",
    "settings": [
      {
        "type": "header",
        "content": "Logos"
      },
      {
        "type": "image",
        "id": "logo.png",
        "label": "Chaos Logo",
        "max-width": 450,
        "max-height": 200,
        "info": "Maximum logo dimensions are 450px wide by 200px high. The uploaded file will be resized to fit within those constraints."
      },
      {
        "type": "image",
        "id": "tiny_logo.png",
        "label": "Mobile Chaos Logo",
        "max-width": 450,
        "max-height": 200,
        "info": "Maximum logo dimensions are 450px wide by 200px high. The uploaded file will be resized to fit within those constraints."
      },
      {
        "type": "image",
        "id": "ctr_logo.png",
        "label": "CTR Logo",
        "max-width": 450,
        "max-height": 200,
        "info": "Maximum logo dimensions are 450px wide by 200px high. The uploaded file will be resized to fit within those constraints."
      },
      {
        "type": "text",
        "id": "ctr_link",
        "label": "Link to CTR's page"
      },
      {
        "type": "header",
        "content": "Favicon"
      },
      {
        "type": "image",
        "id": "favicon.png",
        "label": "16px x 16px png",
        "max-width": 16,
        "max-height": 16
      }
    ]
  },
  {
    "name": "Footer",
    "settings": [
      {
        "type": "image",
        "id": "ctr_link_photo.jpg",
        "label": "CTR Link Photo",
        "max-width": 1500,
        "max-height": 800,
        "info": "Maximum dimensions are 1500px wide by 800px high. The uploaded file will be resized to fit within those constraints."
      },
      {
        "type": "text",
        "id": "newsletter_form_id",
        "label": "MailChimp Form ID"
      }
    ]
  },
  {
    "name": "CTR Page",
    "settings": [
      {
        "type": "header",
        "content": "Assets"
      },
      {
        "type": "image",
        "id": "ctr_logo_white.png",
        "label": "White CTR Logo",
        "max-width": 450,
        "max-height": 200,
        "info": "Maximum logo dimensions are 450px wide by 200px high. The uploaded file will be resized to fit within those constraints."
      },
      {
        "type": "header",
        "content": "Slides"
      },
      {
        "type": "text",
        "id": "ctr_1_text",
        "label": "Slide 1 Text"
      },
      {
        "type": "image",
        "id": "ctr_1_back.jpg",
        "label": "Slide 1 Background",
        "max-width": 1280,
        "max-height": 800
      },
      {
        "type": "text",
        "id": "ctr_2_text",
        "label": "Slide 2 Text"
      },
      {
        "type": "image",
        "id": "ctr_2_back.jpg",
        "label": "Slide 2 Background",
        "max-width": 1280,
        "max-height": 800
      },
      {
        "type": "text",
        "id": "ctr_3_text",
        "label": "Slide 3 Text"
      },
      {
        "type": "image",
        "id": "ctr_3_back.jpg",
        "label": "Slide 3 Background",
        "max-width": 1280,
        "max-height": 800
      },
      {
        "type": "text",
        "id": "ctr_4_text",
        "label": "Slide 4 Text"
      },
      {
        "type": "image",
        "id": "ctr_4_back.jpg",
        "label": "Slide 4 Background",
        "max-width": 1280,
        "max-height": 800
      },
      {
        "type": "header",
        "content": "Footer"
      },
      {
        "type": "image",
        "id": "ctr_footer_back.jpg",
        "label": "Footer Background",
        "max-width": 1280,
        "max-height": 800
      },
      {
        "type": "text",
        "id": "ctr_pr_email",
        "label": "PR Email"
      },
      {
        "type": "text",
        "id": "ctr_email",
        "label": "Info Email"
      },
      {
        "type": "text",
        "id": "ctr_info_phone",
        "label": "Info Phone"
      }
    ]
  }
]